<?xml version="1.0" encoding="utf-8"?>
<!-- Generator: Adobe Illustrator 23.0.2, SVG Export Plug-In . SVG Version: 6.00 Build 0)  -->
<svg version="1.1" id="Layer_1" xmlns="http://www.w3.org/2000/svg" xmlns:xlink="http://www.w3.org/1999/xlink" x="0px" y="0px"
	 viewBox="0 0 100 100" style="enable-background:new 0 0 100 100;" xml:space="preserve">
<g>
	<polygon points="99.75,44.75 55.25,44.75 55.25,0.25 44.25,0.25 44.25,44.75 -0.25,44.75 -0.25,55.75 44.25,55.75 44.25,100.25 
		55.25,100.25 55.25,55.75 99.75,55.75 	"/>
</g>
</svg>
